{
    "params": {
        "local_server": "True",
        "local_uri": "mysql://root:@localhost/portfolio",
        "prod_uri": "mysql://root:@localhost/portfolio",
        "fb_url": "https://facebook.com/iamkoustav",
        "tw_url": "https://twitter.com/iamkoustav",
        "gh_url": "https://github.com/iamkoustav",
        "insta_url": "https://instagram.com/iamkoustav",
        "whatsapp_url": "https://api.whatsapp.com/send?phone=+919933391351",
        "youtube_url": "https://www.youtube.com/channel/UC7MBly1mT0LTghdTidrSxVw?sub_confirmation=1",
        "blog_name": "LearningTechy",
        "tag_line": "The all new tech learning platform",
        "gmail-user": "yourgmail@gmail.com",
        "gmail-password": "password",
        "about_text": "Hi my name is koustav and I create tech tutorials"
    }
}